{
  "version": 1,
  "author": "dnzm",
  "keyboard": "lily58/rev1",
  "keymap": "dnzm",
  "layout": "LAYOUT_wrapper",
  "diode_direction": "COL2ROW",
  "matrix_pins": {
      "rows": [ "C6", "D7", "E6", "B4", "B5" ],
      "cols": [ "F6", "F7", "B1", "B3", "B2", "B6" ]
  },
  "layers": [
      ["QUERTY"],
      ["COLEMAK"],
      ["NAVIGATION"],
      ["NUMBERS"],
      ["SYMBOLS"],
      ["FUNCTION"],
      ["MOUSE"]
  ]
}
